Division,WeightClassKg,Place,Name,Team,BodyweightKg,Best3SquatKg,Best3BenchKg,Best3DeadliftKg,TotalKg,Equipment,Event,Sex,BirthDate
Boys,51.71,1,Amari Crowder,Mansfield Timberview,50.12,124.74,70.31,138.35,333.39,Single-ply,SBD,M,
Boys,51.71,2,Ontario Darnell,Mansfield Summit,48.99,79.38,52.16,115.67,247.21,Single-ply,SBD,M,
Boys,59.87,1,Andrew Alcala,Mansfield Timberview,59.65,149.69,92.99,136.08,378.75,Single-ply,SBD,M,
Boys,59.87,2,Tai Satchell,Mansfield Timberview,58.74,136.08,90.72,136.08,362.87,Single-ply,SBD,M,
Boys,59.87,3,Damon Polling,Mansfield Summit,59.42,83.91,52.16,97.52,233.6,Single-ply,SBD,M,
Boys,67.13,1,Kartez White,North Crowley,61.23,115.67,72.57,136.08,324.32,Single-ply,SBD,M,
Boys,67.13,2,Kayode Gbadebo,Mansfield Summit,63.05,111.13,65.77,124.74,301.64,Single-ply,SBD,M,
Boys,67.13,3,Torin Sheehy,Mansfield Lake Ridge,64.41,106.59,70.31,111.13,288.03,Single-ply,SBD,M,
Boys,67.13,DQ,Tyler Moores,Mansfield Legacy,63.96,124.74,,,,Single-ply,SBD,M,
Boys,74.84,1,Aman Rana,Mansfield Summit,71.21,206.38,102.06,215.46,523.9,Single-ply,SBD,M,
Boys,74.84,2,Cartez Joseph,Mansfield Summit,71.21,201.85,122.47,190.51,514.83,Single-ply,SBD,M,
Boys,74.84,3,Triston McDonald,Mansfield Timberview,73.94,190.51,113.4,192.78,496.68,Single-ply,SBD,M,
Boys,74.84,4,Donovan Hubbard,Cedar Hill,68.95,158.76,83.91,176.9,419.57,Single-ply,SBD,M,
Boys,74.84,5,Isaiah Hall,Mansfield Summit,71.67,145.15,95.25,158.76,399.16,Single-ply,SBD,M,
Boys,74.84,6,Drew Blevins,Mansfield,73.94,133.81,77.11,172.37,383.29,Single-ply,SBD,M,
Boys,74.84,7,Ricardo Rendon,Mansfield Timberview,74.84,127.01,97.52,151.95,376.48,Single-ply,SBD,M,
Boys,74.84,8,Logan Fortenberry,Mansfield Lake Ridge,69.4,108.86,79.38,170.1,358.34,Single-ply,SBD,M,
Boys,74.84,9,Myles Maldonado,Mansfield Legacy,74.53,111.13,61.23,158.76,331.12,Single-ply,SBD,M,
Boys,74.84,DQ,Steven Black,Mansfield Timberview,70.53,115.67,70.31,,,Single-ply,SBD,M,
Boys,82.1,1,Tyrone Pettiford,North Crowley,81.42,254.01,136.08,272.16,662.24,Single-ply,SBD,M,
Boys,82.1,2,Xavier Toliver,Mansfield Summit,78.93,231.33,131.54,247.21,610.08,Single-ply,SBD,M,
Boys,82.1,3,Ryan Robinson,Cedar Hill,77.56,204.12,104.33,204.12,512.56,Single-ply,SBD,M,
Boys,82.1,4,Brett Lynch,Cedar Hill,80.74,183.7,102.06,183.7,469.47,Single-ply,SBD,M,
Boys,82.1,5,Austin Fortenberry,Mansfield Lake Ridge,78.02,156.49,97.52,206.38,460.4,Single-ply,SBD,M,
Boys,82.1,6,James Windsor,Mansfield,81.51,154.22,117.93,183.7,455.86,Single-ply,SBD,M,
Boys,82.1,7,Jason Tran #2,Mansfield,79.83,156.49,97.52,197.31,451.32,Single-ply,SBD,M,
Boys,82.1,8,Mondrai Hogg,Mansfield Timberview,78.24,136.08,111.13,158.76,405.97,Single-ply,SBD,M,
Boys,82.1,9,Bryce McCorkle,Mansfield Legacy,81.65,145.15,95.25,158.76,399.16,Single-ply,SBD,M,
Boys,82.1,10,Oscar Garrido,Mansfield Legacy,82.1,147.42,83.91,154.22,385.55,Single-ply,SBD,M,
Boys,82.1,11,Noah Loughlin,Mansfield Lake Ridge,78.47,127.01,86.18,149.69,362.87,Single-ply,SBD,M,
Boys,82.1,12,Auston Muetz,Mansfield Summit,80.29,113.4,68.04,170.1,351.53,Single-ply,SBD,M,
Boys,82.1,DQ,Ethan Nguyen,Mansfield Lake Ridge,82.1,213.19,,222.26,,Single-ply,SBD,M,
Boys,89.81,1,Zach Essih,Mansfield Timberview,84.37,208.65,104.33,219.99,532.97,Single-ply,SBD,M,
Boys,89.81,2,Tyran Bryd,Cedar Hill,88,183.7,95.25,204.12,483.08,Single-ply,SBD,M,
Boys,89.81,3,Tri Nguyen,Mansfield Summit,83.46,183.7,95.25,190.51,469.47,Single-ply,SBD,M,
Boys,89.81,4,Cameron Alexander,Mansfield Summit,87.54,163.29,95.25,190.51,449.06,Single-ply,SBD,M,
Boys,89.81,5,Alfredo Heredia,Mansfield Timberview,82.33,154.22,95.25,158.76,408.23,Single-ply,SBD,M,
Boys,89.81,6,Anthony Green-Felder,North Crowley,85.28,124.74,99.79,136.08,360.61,Single-ply,SBD,M,
Boys,99.79,1,Adam Sawalha,Mansfield Lake Ridge,96.16,242.67,117.93,249.48,610.08,Single-ply,SBD,M,
Boys,99.79,2,Ian Bradley,Cedar Hill,94.35,208.65,122.47,226.8,557.92,Single-ply,SBD,M,
Boys,99.79,3,Nicholas Hopkins #2,North Crowley,92.08,192.78,147.42,204.12,544.31,Single-ply,SBD,M,
Boys,99.79,4,Nicholas Campbell,North Crowley,98.43,183.7,124.74,204.12,512.56,Single-ply,SBD,M,
Boys,99.79,5,Kaleb Davis,Mansfield Timberview,98.66,163.29,102.06,204.12,469.47,Single-ply,SBD,M,
Boys,99.79,6,Logan Polson,Mansfield Legacy,90.72,156.49,90.72,192.78,439.98,Single-ply,SBD,M,
Boys,99.79,7,Bryan Mitchell,Mansfield Timberview,90.49,140.61,102.06,181.44,424.11,Single-ply,SBD,M,
Boys,99.79,8,Andrew Billings #2,Mansfield Summit,90.72,172.37,99.79,149.69,421.84,Single-ply,SBD,M,
Boys,99.79,9,Max Colon,Mansfield Legacy,97.52,165.56,111.13,136.08,412.77,Single-ply,SBD,M,
Boys,99.79,10,Jahari Williams,North Crowley,98.43,154.22,83.91,174.63,412.77,Single-ply,SBD,M,
Boys,109.77,1,Demondre Green,Mansfield Timberview,109.32,238.14,138.35,229.06,605.55,Single-ply,SBD,M,
Boys,109.77,2,Javeon Artist,Mansfield Timberview,105.23,210.92,145.15,206.38,562.45,Single-ply,SBD,M,
Boys,109.77,3,Joseph Adidine,Mansfield Summit,102.06,185.97,102.06,224.53,512.56,Single-ply,SBD,M,
Boys,109.77,4,Charles Esters,Cedar Hill,103.87,174.63,117.93,204.12,496.68,Single-ply,SBD,M,
Boys,109.77,5,Aaron Martinez #3,Mansfield Legacy,103.74,183.7,108.86,195.04,487.61,Single-ply,SBD,M,
Boys,109.77,6,Corey Traylor,Cedar Hill,103.87,176.9,104.33,206.38,487.61,Single-ply,SBD,M,
Boys,109.77,7,Caleb Felton,Cedar Hill,102.06,181.44,90.72,163.29,435.45,Single-ply,SBD,M,
Boys,109.77,8,Robert Pride,Cedar Hill,100.24,167.83,97.52,161.03,426.38,Single-ply,SBD,M,
Boys,109.77,9,Sterling Cox,Mansfield Legacy,101.6,142.88,83.91,142.88,369.68,Single-ply,SBD,M,
Boys,109.77,DQ,Dallas Berry,North Crowley,105.23,215.46,,,,Single-ply,SBD,M,
Boys,124.74,1,Abmani Cathey,Mansfield Timberview,118.84,238.14,147.42,204.12,589.67,Single-ply,SBD,M,
Boys,124.74,2,Caleb Rogers,Mansfield Lake Ridge,121.56,226.8,115.67,226.8,569.26,Single-ply,SBD,M,
Boys,124.74,3,Biola Oyelade,Mansfield Summit,122.92,204.12,129.27,224.53,557.92,Single-ply,SBD,M,
Boys,124.74,4,Avary Davis #1,Mansfield Summit,113.85,226.8,136.08,192.78,555.65,Single-ply,SBD,M,
Boys,124.74,5,Kacey Cauley,Mansfield Timberview,117.93,195.04,156.49,190.51,542.04,Single-ply,SBD,M,
Boys,124.74,6,Aaron Austin,North Crowley,112.04,158.76,165.56,172.37,496.68,Single-ply,SBD,M,
Boys,124.74,7,Ivan Narro,Cedar Hill,111.13,185.97,104.33,183.7,474,Single-ply,SBD,M,
Boys,124.74,8,Deshaun Nemons,North Crowley,116.12,188.24,117.93,154.22,460.4,Single-ply,SBD,M,
Boys,124.74,9,Ian Woodard,North Crowley,110.68,149.69,97.52,158.76,405.97,Single-ply,SBD,M,
Boys,124.74,10,Treston Walker,Mansfield Summit,112.94,158.76,79.38,165.56,403.7,Single-ply,SBD,M,
Boys,124.74,DQ,Michael Huddleston,Mansfield Legacy,114.89,,,,,Single-ply,SBD,M,
Boys,124.74+,1,Joshua Giliam,Mansfield Timberview,132.9,254.01,149.69,244.94,648.64,Single-ply,SBD,M,
Boys,124.74+,2,John Sierra,Cedar Hill,130.63,204.12,122.47,170.1,496.68,Single-ply,SBD,M,
Boys,124.74+,3,Day'vion Peoples,North Crowley,127.46,183.7,83.91,195.04,462.66,Single-ply,SBD,M,
Boys,124.74+,4,Jordan Allen,Mansfield Lake Ridge,129.27,170.1,102.06,183.7,455.86,Single-ply,SBD,M,
Boys,124.74+,DQ,Garrett Little,Mansfield Legacy,129.27,183.7,,,,Single-ply,SBD,M,
